%YAML 1.1
%TAG !u! tag:unity3d.com,2011:
--- !u!114 &11400000
MonoBehaviour:
  m_ObjectHideFlags: 0
  m_CorrespondingSourceObject: {fileID: 0}
  m_PrefabInstance: {fileID: 0}
  m_PrefabAsset: {fileID: 0}
  m_GameObject: {fileID: 0}
  m_Enabled: 1
  m_EditorHideFlags: 0
  m_Script: {fileID: 11500000, guid: 34a7c8ca992f915438a96c2077353778, type: 3}
  m_Name: ClickAndGo
  m_EditorClassIdentifier: 
  brickName: Assets/Behaviour/ClickAndGo.asset
  xml: "\uFEFF<?xml version=\"1.0\" encoding=\"utf-8\"?>\r\n<BehaviorBricks xmlns:ref=\"urn:padaone\"
    version=\"1.0\">\r\n  <BehaviorTree id=\"0\" />\r\n  <runtimeInfo>\r\n    <BehaviorTree
    id=\"0\" guid=\"7d88f7c451be54f49b72a68f3cc57974\" nextId=\"6\">\r\n      <root>\r\n       
    <RepeatDecorator id=\"5\" />\r\n      </root>\r\n      <inputParams>\r\n       
    <inputValues>\r\n          <entry name=\"camera\" type=\"UnityEngine.Camera\"
    isBlackboard=\"False\" />\r\n          <entry name=\"mask\" type=\"UnityEngine.LayerMask\"
    isBlackboard=\"False\" />\r\n        </inputValues>\r\n      </inputParams>\r\n     
    <outputParams />\r\n      <localParams>\r\n        <localValues>\r\n         
    <entry name=\"selectedPosition\" type=\"UnityEngine.Vector3\" isBlackboard=\"False\"
    />\r\n        </localValues>\r\n      </localParams>\r\n    </BehaviorTree>\r\n   
    <RepeatDecorator id=\"5\" loops=\"-1\" policy=\"ContinueWhenChildFails\">\r\n     
    <child>\r\n        <SequenceNode id=\"4\" />\r\n      </child>\r\n      <inputParams
    />\r\n      <outputParams />\r\n      <localParams />\r\n    </RepeatDecorator>\r\n   
    <SequenceNode id=\"4\">\r\n      <children>\r\n        <elem>\r\n          <ConditionNode
    id=\"1\" />\r\n        </elem>\r\n        <elem>\r\n          <ActionNode id=\"2\"
    />\r\n        </elem>\r\n        <elem>\r\n          <ActionNode id=\"3\" />\r\n       
    </elem>\r\n      </children>\r\n      <inputParams />\r\n      <outputParams
    />\r\n      <localParams />\r\n    </SequenceNode>\r\n    <ConditionNode id=\"1\">\r\n     
    <condition>\r\n        <ConditionEvalNode id=\"0\" />\r\n      </condition>\r\n     
    <inputParams>\r\n        <inputValues>\r\n          <entry name=\"button\" type=\"BBCore.Conditions.CheckMouseButton+MouseButton\"
    isBlackboard=\"False\" value=\"left\" />\r\n        </inputValues>\r\n      </inputParams>\r\n     
    <outputParams />\r\n      <localParams />\r\n    </ConditionNode>\r\n    <ActionNode
    id=\"2\" action=\"Physics/FromMouseToWorld\">\r\n      <inputParams>\r\n       
    <inputValues>\r\n          <entry name=\"camera\" type=\"UnityEngine.Camera\"
    isBlackboard=\"True\" blackboard=\"camera\" />\r\n          <entry name=\"mask\"
    type=\"UnityEngine.LayerMask\" isBlackboard=\"True\" blackboard=\"mask\" />\r\n       
    </inputValues>\r\n      </inputParams>\r\n      <outputParams>\r\n        <outputValues>\r\n         
    <entry name=\"selectedGameObject\" type=\"UnityEngine.GameObject\" isBlackboard=\"True\"
    blackboard=\"\" />\r\n          <entry name=\"selectedPosition\" type=\"UnityEngine.Vector3\"
    isBlackboard=\"True\" blackboard=\"selectedPosition\" />\r\n        </outputValues>\r\n     
    </outputParams>\r\n      <localParams />\r\n    </ActionNode>\r\n    <ActionNode
    id=\"3\" action=\"Navigation/MoveToPosition\">\r\n      <inputParams>\r\n       
    <inputValues>\r\n          <entry name=\"target\" type=\"UnityEngine.Vector3\"
    isBlackboard=\"True\" blackboard=\"selectedPosition\" />\r\n        </inputValues>\r\n     
    </inputParams>\r\n      <outputParams />\r\n      <localParams />\r\n    </ActionNode>\r\n   
    <ConditionEvalNode id=\"0\" policy=\"ATOMIC_CHECK\" name=\"Basic/CheckMouseButton\">\r\n     
    <inputParams />\r\n      <outputParams />\r\n      <localParams />\r\n    </ConditionEvalNode>\r\n 
    </runtimeInfo>\r\n  <editorInfo>\r\n    <BehaviorTree id=\"0\" _name=\"ClickAndGo\"
    _description=\"\" _removeIfClosed=\"False\">\r\n      <_rootList>\r\n       
    <elem>\r\n          <ConditionNode id=\"1\" />\r\n        </elem>\r\n       
    <elem>\r\n          <ActionNode id=\"2\" />\r\n        </elem>\r\n        <elem>\r\n         
    <ActionNode id=\"3\" />\r\n        </elem>\r\n        <elem>\r\n          <SequenceNode
    id=\"4\" />\r\n        </elem>\r\n        <elem>\r\n          <RepeatDecorator
    id=\"5\" />\r\n        </elem>\r\n      </_rootList>\r\n      <_nodes>\r\n       
    <nodes>\r\n          <ConditionNode id=\"1\" />\r\n          <ActionNode id=\"2\"
    />\r\n          <ActionNode id=\"3\" />\r\n          <SequenceNode id=\"4\" />\r\n         
    <RepeatDecorator id=\"5\" />\r\n        </nodes>\r\n      </_nodes>\r\n    </BehaviorTree>\r\n   
    <RepeatDecorator id=\"5\">\r\n      <_data>\r\n        <data breakpoint=\"0\"
    selected=\"False\" position=\"1568 134\" name=\"Repeat\" description=\"Repeats
    the execution of its child node\" cardinality=\"1\" hasParent=\"False\">\r\n         
    <BehaviorTree id=\"0\" />\r\n          <RepeatDecorator id=\"5\" />\r\n       
    </data>\r\n      </_data>\r\n    </RepeatDecorator>\r\n    <SequenceNode id=\"4\">\r\n     
    <_data>\r\n        <data breakpoint=\"0\" selected=\"False\" position=\"1560
    266\" name=\"Sequence\" description=\"Executes all its children in sequence until
    all of them are successful\" cardinality=\"-1\" hasParent=\"True\">\r\n         
    <BehaviorTree id=\"0\" />\r\n          <SequenceNode id=\"4\" />\r\n         
    <RepeatDecorator id=\"5\" />\r\n        </data>\r\n      </_data>\r\n    </SequenceNode>\r\n   
    <ConditionNode id=\"1\">\r\n      <_data>\r\n        <data breakpoint=\"0\" selected=\"False\"
    position=\"1373.105 400.0834\" name=\"Basic/CheckMouseButton\" description=\"Checks
    whether a mouse button is pressed\" cardinality=\"0\" hasParent=\"True\">\r\n         
    <BehaviorTree id=\"0\" />\r\n          <ConditionNode id=\"1\" />\r\n         
    <SequenceNode id=\"4\" />\r\n        </data>\r\n      </_data>\r\n    </ConditionNode>\r\n   
    <ActionNode id=\"2\">\r\n      <_data>\r\n        <data breakpoint=\"0\" selected=\"False\"
    position=\"1524 402\" name=\"Physics/FromMouseToWorld\" description=\"Gets the
    game object and position that is under the mouse cursor\" cardinality=\"0\" hasParent=\"True\">\r\n         
    <BehaviorTree id=\"0\" />\r\n          <ActionNode id=\"2\" />\r\n          <SequenceNode
    id=\"4\" />\r\n        </data>\r\n      </_data>\r\n    </ActionNode>\r\n   
    <ActionNode id=\"3\">\r\n      <_data>\r\n        <data breakpoint=\"0\" selected=\"False\"
    position=\"1788 398\" name=\"Navigation/MoveToPosition\" description=\"Moves
    the game object to a given position by using a NavMeshAgent\" cardinality=\"0\"
    hasParent=\"True\">\r\n          <BehaviorTree id=\"0\" />\r\n          <ActionNode
    id=\"3\" />\r\n          <SequenceNode id=\"4\" />\r\n        </data>\r\n     
    </_data>\r\n    </ActionNode>\r\n    <ConditionEvalNode id=\"0\">\r\n      <_data>\r\n       
    <data breakpoint=\"0\" selected=\"False\" position=\"0 0\" name=\"AlwaysTrue\"
    description=\"Eval\" cardinality=\"1\" hasParent=\"False\">\r\n          <BehaviorTree
    id=\"0\" />\r\n        </data>\r\n      </_data>\r\n    </ConditionEvalNode>\r\n 
    </editorInfo>\r\n</BehaviorBricks>"
  zoom: 0.5
  subslist: []
  _guid: 7d88f7c451be54f49b72a68f3cc57974
