%YAML 1.1
%TAG !u! tag:unity3d.com,2011:
--- !u!126 &1
NavMeshProjectSettings:
  m_ObjectHideFlags: 0
  serializedVersion: 2
  areas:
  - name: Walkable
    cost: 1
  - name: Not Walkable
    cost: 1
  - name: Jump
    cost: 2
  - name: Runnable
    cost: 3
  - name: Wanderable
    cost: 4
  - name: 
    cost: 1
  - name: 
    cost: 1
  - name: 
    cost: 1
  - name: 
    cost: 1
  - name: 
    cost: 1
  - name: 
    cost: 1
  - name: 
    cost: 1
  - name: 
    cost: 1
  - name: 
    cost: 1
  - name: 
    cost: 1
  - name: 
    cost: 1
  - name: 
    cost: 1
  - name: 
    cost: 1
  - name: 
    cost: 1
  - name: 
    cost: 1
  - name: 
    cost: 1
  - name: 
    cost: 1
  - name: 
    cost: 1
  - name: 
    cost: 1
  - name: 
    cost: 1
  - name: 
    cost: 1
  - name: 
    cost: 1
  - name: 
    cost: 1
  - name: 
    cost: 1
  - name: 
    cost: 1
  - name: 
    cost: 1
  - name: 
    cost: 1
  m_LastAgentTypeID: -334000983
  m_Settings:
  - serializedVersion: 2
    agentTypeID: 0
    agentRadius: 0.5
    agentHeight: 2
    agentSlope: 45
    agentClimb: 0.75
    ledgeDropHeight: 0
    maxJumpAcrossDistance: 0
    minRegionArea: 2
    manualCellSize: 0
    cellSize: 0.16666667
    manualTileSize: 0
    tileSize: 256
    accuratePlacement: 0
    maxJobWorkers: 0
    preserveTilesOutsideBounds: 0
    debug:
      m_Flags: 0
  - serializedVersion: 2
    agentTypeID: -1372625422
    agentRadius: 0.5
    agentHeight: 2
    agentSlope: 45
    agentClimb: 0.4
    ledgeDropHeight: 0
    maxJumpAcrossDistance: 0
    minRegionArea: 2
    manualCellSize: 0
    cellSize: 0.16666667
    manualTileSize: 0
    tileSize: 256
    accuratePlacement: 0
    maxJobWorkers: 0
    preserveTilesOutsideBounds: 0
    debug:
      m_Flags: 0
  - serializedVersion: 2
    agentTypeID: -334000983
    agentRadius: 0.5
    agentHeight: 2
    agentSlope: 45
    agentClimb: 0.4
    ledgeDropHeight: 0
    maxJumpAcrossDistance: 0
    minRegionArea: 2
    manualCellSize: 0
    cellSize: 0.16666667
    manualTileSize: 0
    tileSize: 256
    accuratePlacement: 0
    maxJobWorkers: 0
    preserveTilesOutsideBounds: 0
    debug:
      m_Flags: 0
  m_SettingNames:
  - Humanoid
  - Runner
  - Elder
